{
    "count": 9696,
    "next": "https://api.octopus.energy/v1/electricity-meter-points/2000056839362/meters/19L3278730/consumption/?page=2",
    "previous": null,
    "results": [
        {
            "consumption": 0.05,
            "interval_start": "2020-08-12T00:00:00+01:00",
            "interval_end": "2020-08-12T00:30:00+01:00"
        },
        {
            "consumption": 0.034,
            "interval_start": "2020-08-11T23:30:00+01:00",
            "interval_end": "2020-08-12T00:00:00+01:00"
        },
        {
            "consumption": 0.043,
            "interval_start": "2020-08-11T23:00:00+01:00",
            "interval_end": "2020-08-11T23:30:00+01:00"
        },
        {
            "consumption": 0.072,
            "interval_start": "2020-08-11T22:30:00+01:00",
            "interval_end": "2020-08-11T23:00:00+01:00"
        },
        {
            "consumption": 0.152,
            "interval_start": "2020-08-11T22:00:00+01:00",
            "interval_end": "2020-08-11T22:30:00+01:00"
        },
        {
            "consumption": 0.111,
            "interval_start": "2020-08-11T21:30:00+01:00",
            "interval_end": "2020-08-11T22:00:00+01:00"
        },
        {
            "consumption": 0.053,
            "interval_start": "2020-08-11T21:00:00+01:00",
            "interval_end": "2020-08-11T21:30:00+01:00"
        },
        {
            "consumption": 0.033,
            "interval_start": "2020-08-11T20:30:00+01:00",
            "interval_end": "2020-08-11T21:00:00+01:00"
        },
        {
            "consumption": 0.046,
            "interval_start": "2020-08-11T20:00:00+01:00",
            "interval_end": "2020-08-11T20:30:00+01:00"
        },
        {
            "consumption": 0.07,
            "interval_start": "2020-08-11T19:30:00+01:00",
            "interval_end": "2020-08-11T20:00:00+01:00"
        },
        {
            "consumption": 0.07,
            "interval_start": "2020-08-11T19:00:00+01:00",
            "interval_end": "2020-08-11T19:30:00+01:00"
        },
        {
            "consumption": 0.071,
            "interval_start": "2020-08-11T18:30:00+01:00",
            "interval_end": "2020-08-11T19:00:00+01:00"
        },
        {
            "consumption": 0.071,
            "interval_start": "2020-08-11T18:00:00+01:00",
            "interval_end": "2020-08-11T18:30:00+01:00"
        },
        {
            "consumption": 0.072,
            "interval_start": "2020-08-11T17:30:00+01:00",
            "interval_end": "2020-08-11T18:00:00+01:00"
        },
        {
            "consumption": 0.083,
            "interval_start": "2020-08-11T17:00:00+01:00",
            "interval_end": "2020-08-11T17:30:00+01:00"
        },
        {
            "consumption": 0.156,
            "interval_start": "2020-08-11T16:30:00+01:00",
            "interval_end": "2020-08-11T17:00:00+01:00"
        },
        {
            "consumption": 0.157,
            "interval_start": "2020-08-11T16:00:00+01:00",
            "interval_end": "2020-08-11T16:30:00+01:00"
        },
        {
            "consumption": 0.134,
            "interval_start": "2020-08-11T15:30:00+01:00",
            "interval_end": "2020-08-11T16:00:00+01:00"
        },
        {
            "consumption": 0.147,
            "interval_start": "2020-08-11T15:00:00+01:00",
            "interval_end": "2020-08-11T15:30:00+01:00"
        },
        {
            "consumption": 0.17,
            "interval_start": "2020-08-11T14:30:00+01:00",
            "interval_end": "2020-08-11T15:00:00+01:00"
        },
        {
            "consumption": 0.158,
            "interval_start": "2020-08-11T14:00:00+01:00",
            "interval_end": "2020-08-11T14:30:00+01:00"
        },
        {
            "consumption": 0.146,
            "interval_start": "2020-08-11T13:30:00+01:00",
            "interval_end": "2020-08-11T14:00:00+01:00"
        },
        {
            "consumption": 0.16,
            "interval_start": "2020-08-11T13:00:00+01:00",
            "interval_end": "2020-08-11T13:30:00+01:00"
        },
        {
            "consumption": 0.167,
            "interval_start": "2020-08-11T12:30:00+01:00",
            "interval_end": "2020-08-11T13:00:00+01:00"
        },
        {
            "consumption": 0.165,
            "interval_start": "2020-08-11T12:00:00+01:00",
            "interval_end": "2020-08-11T12:30:00+01:00"
        },
        {
            "consumption": 0.168,
            "interval_start": "2020-08-11T11:30:00+01:00",
            "interval_end": "2020-08-11T12:00:00+01:00"
        },
        {
            "consumption": 0.169,
            "interval_start": "2020-08-11T11:00:00+01:00",
            "interval_end": "2020-08-11T11:30:00+01:00"
        },
        {
            "consumption": 0.144,
            "interval_start": "2020-08-11T10:30:00+01:00",
            "interval_end": "2020-08-11T11:00:00+01:00"
        },
        {
            "consumption": 0.128,
            "interval_start": "2020-08-11T10:00:00+01:00",
            "interval_end": "2020-08-11T10:30:00+01:00"
        },
        {
            "consumption": 0.142,
            "interval_start": "2020-08-11T09:30:00+01:00",
            "interval_end": "2020-08-11T10:00:00+01:00"
        },
        {
            "consumption": 0.164,
            "interval_start": "2020-08-11T09:00:00+01:00",
            "interval_end": "2020-08-11T09:30:00+01:00"
        },
        {
            "consumption": 0.286,
            "interval_start": "2020-08-11T08:30:00+01:00",
            "interval_end": "2020-08-11T09:00:00+01:00"
        },
        {
            "consumption": 0.154,
            "interval_start": "2020-08-11T08:00:00+01:00",
            "interval_end": "2020-08-11T08:30:00+01:00"
        },
        {
            "consumption": 0.035,
            "interval_start": "2020-08-11T07:30:00+01:00",
            "interval_end": "2020-08-11T08:00:00+01:00"
        },
        {
            "consumption": 0.144,
            "interval_start": "2020-08-11T07:00:00+01:00",
            "interval_end": "2020-08-11T07:30:00+01:00"
        },
        {
            "consumption": 0.203,
            "interval_start": "2020-08-11T06:30:00+01:00",
            "interval_end": "2020-08-11T07:00:00+01:00"
        },
        {
            "consumption": 0.208,
            "interval_start": "2020-08-11T06:00:00+01:00",
            "interval_end": "2020-08-11T06:30:00+01:00"
        },
        {
            "consumption": 0.045,
            "interval_start": "2020-08-11T05:30:00+01:00",
            "interval_end": "2020-08-11T06:00:00+01:00"
        },
        {
            "consumption": 0.034,
            "interval_start": "2020-08-11T05:00:00+01:00",
            "interval_end": "2020-08-11T05:30:00+01:00"
        },
        {
            "consumption": 0.053,
            "interval_start": "2020-08-11T04:30:00+01:00",
            "interval_end": "2020-08-11T05:00:00+01:00"
        },
        {
            "consumption": 0.069,
            "interval_start": "2020-08-11T04:00:00+01:00",
            "interval_end": "2020-08-11T04:30:00+01:00"
        },
        {
            "consumption": 0.072,
            "interval_start": "2020-08-11T03:30:00+01:00",
            "interval_end": "2020-08-11T04:00:00+01:00"
        },
        {
            "consumption": 0.036,
            "interval_start": "2020-08-11T03:00:00+01:00",
            "interval_end": "2020-08-11T03:30:00+01:00"
        },
        {
            "consumption": 0.034,
            "interval_start": "2020-08-11T02:30:00+01:00",
            "interval_end": "2020-08-11T03:00:00+01:00"
        },
        {
            "consumption": 0.045,
            "interval_start": "2020-08-11T02:00:00+01:00",
            "interval_end": "2020-08-11T02:30:00+01:00"
        },
        {
            "consumption": 0.07,
            "interval_start": "2020-08-11T01:30:00+01:00",
            "interval_end": "2020-08-11T02:00:00+01:00"
        },
        {
            "consumption": 0.07,
            "interval_start": "2020-08-11T01:00:00+01:00",
            "interval_end": "2020-08-11T01:30:00+01:00"
        },
        {
            "consumption": 0.055,
            "interval_start": "2020-08-11T00:30:00+01:00",
            "interval_end": "2020-08-11T01:00:00+01:00"
        },
        {
            "consumption": 0.035,
            "interval_start": "2020-08-11T00:00:00+01:00",
            "interval_end": "2020-08-11T00:30:00+01:00"
        },
        {
            "consumption": 0.037,
            "interval_start": "2020-08-10T23:30:00+01:00",
            "interval_end": "2020-08-11T00:00:00+01:00"
        },
        {
            "consumption": 0.074,
            "interval_start": "2020-08-10T23:00:00+01:00",
            "interval_end": "2020-08-10T23:30:00+01:00"
        },
        {
            "consumption": 0.073,
            "interval_start": "2020-08-10T22:30:00+01:00",
            "interval_end": "2020-08-10T23:00:00+01:00"
        },
        {
            "consumption": 0.128,
            "interval_start": "2020-08-10T22:00:00+01:00",
            "interval_end": "2020-08-10T22:30:00+01:00"
        },
        {
            "consumption": 0.167,
            "interval_start": "2020-08-10T21:30:00+01:00",
            "interval_end": "2020-08-10T22:00:00+01:00"
        },
        {
            "consumption": 0.168,
            "interval_start": "2020-08-10T21:00:00+01:00",
            "interval_end": "2020-08-10T21:30:00+01:00"
        },
        {
            "consumption": 0.151,
            "interval_start": "2020-08-10T20:30:00+01:00",
            "interval_end": "2020-08-10T21:00:00+01:00"
        },
        {
            "consumption": 0.131,
            "interval_start": "2020-08-10T20:00:00+01:00",
            "interval_end": "2020-08-10T20:30:00+01:00"
        },
        {
            "consumption": 0.093,
            "interval_start": "2020-08-10T19:30:00+01:00",
            "interval_end": "2020-08-10T20:00:00+01:00"
        },
        {
            "consumption": 0.07,
            "interval_start": "2020-08-10T19:00:00+01:00",
            "interval_end": "2020-08-10T19:30:00+01:00"
        },
        {
            "consumption": 0.08,
            "interval_start": "2020-08-10T18:30:00+01:00",
            "interval_end": "2020-08-10T19:00:00+01:00"
        },
        {
            "consumption": 0.158,
            "interval_start": "2020-08-10T18:00:00+01:00",
            "interval_end": "2020-08-10T18:30:00+01:00"
        },
        {
            "consumption": 0.159,
            "interval_start": "2020-08-10T17:30:00+01:00",
            "interval_end": "2020-08-10T18:00:00+01:00"
        },
        {
            "consumption": 0.159,
            "interval_start": "2020-08-10T17:00:00+01:00",
            "interval_end": "2020-08-10T17:30:00+01:00"
        },
        {
            "consumption": 0.16,
            "interval_start": "2020-08-10T16:30:00+01:00",
            "interval_end": "2020-08-10T17:00:00+01:00"
        },
        {
            "consumption": 0.158,
            "interval_start": "2020-08-10T16:00:00+01:00",
            "interval_end": "2020-08-10T16:30:00+01:00"
        },
        {
            "consumption": 0.159,
            "interval_start": "2020-08-10T15:30:00+01:00",
            "interval_end": "2020-08-10T16:00:00+01:00"
        },
        {
            "consumption": 0.161,
            "interval_start": "2020-08-10T15:00:00+01:00",
            "interval_end": "2020-08-10T15:30:00+01:00"
        },
        {
            "consumption": 0.173,
            "interval_start": "2020-08-10T14:30:00+01:00",
            "interval_end": "2020-08-10T15:00:00+01:00"
        },
        {
            "consumption": 0.188,
            "interval_start": "2020-08-10T14:00:00+01:00",
            "interval_end": "2020-08-10T14:30:00+01:00"
        },
        {
            "consumption": 0.156,
            "interval_start": "2020-08-10T13:30:00+01:00",
            "interval_end": "2020-08-10T14:00:00+01:00"
        },
        {
            "consumption": 0.166,
            "interval_start": "2020-08-10T13:00:00+01:00",
            "interval_end": "2020-08-10T13:30:00+01:00"
        },
        {
            "consumption": 0.21,
            "interval_start": "2020-08-10T12:30:00+01:00",
            "interval_end": "2020-08-10T13:00:00+01:00"
        },
        {
            "consumption": 0.189,
            "interval_start": "2020-08-10T12:00:00+01:00",
            "interval_end": "2020-08-10T12:30:00+01:00"
        },
        {
            "consumption": 0.264,
            "interval_start": "2020-08-10T11:30:00+01:00",
            "interval_end": "2020-08-10T12:00:00+01:00"
        },
        {
            "consumption": 0.174,
            "interval_start": "2020-08-10T11:00:00+01:00",
            "interval_end": "2020-08-10T11:30:00+01:00"
        },
        {
            "consumption": 0.179,
            "interval_start": "2020-08-10T10:30:00+01:00",
            "interval_end": "2020-08-10T11:00:00+01:00"
        },
        {
            "consumption": 0.189,
            "interval_start": "2020-08-10T10:00:00+01:00",
            "interval_end": "2020-08-10T10:30:00+01:00"
        },
        {
            "consumption": 0.148,
            "interval_start": "2020-08-10T09:30:00+01:00",
            "interval_end": "2020-08-10T10:00:00+01:00"
        },
        {
            "consumption": 0.13,
            "interval_start": "2020-08-10T09:00:00+01:00",
            "interval_end": "2020-08-10T09:30:00+01:00"
        },
        {
            "consumption": 0.296,
            "interval_start": "2020-08-10T08:30:00+01:00",
            "interval_end": "2020-08-10T09:00:00+01:00"
        },
        {
            "consumption": 0.219,
            "interval_start": "2020-08-10T08:00:00+01:00",
            "interval_end": "2020-08-10T08:30:00+01:00"
        },
        {
            "consumption": 0.074,
            "interval_start": "2020-08-10T07:30:00+01:00",
            "interval_end": "2020-08-10T08:00:00+01:00"
        },
        {
            "consumption": 0.167,
            "interval_start": "2020-08-10T07:00:00+01:00",
            "interval_end": "2020-08-10T07:30:00+01:00"
        },
        {
            "consumption": 0.17,
            "interval_start": "2020-08-10T06:30:00+01:00",
            "interval_end": "2020-08-10T07:00:00+01:00"
        },
        {
            "consumption": 0.176,
            "interval_start": "2020-08-10T06:00:00+01:00",
            "interval_end": "2020-08-10T06:30:00+01:00"
        },
        {
            "consumption": 0.071,
            "interval_start": "2020-08-10T05:30:00+01:00",
            "interval_end": "2020-08-10T06:00:00+01:00"
        },
        {
            "consumption": 0.072,
            "interval_start": "2020-08-10T05:00:00+01:00",
            "interval_end": "2020-08-10T05:30:00+01:00"
        },
        {
            "consumption": 0.038,
            "interval_start": "2020-08-10T04:30:00+01:00",
            "interval_end": "2020-08-10T05:00:00+01:00"
        },
        {
            "consumption": 0.83,
            "interval_start": "2020-08-10T04:00:00+01:00",
            "interval_end": "2020-08-10T04:30:00+01:00"
        },
        {
            "consumption": 0.048,
            "interval_start": "2020-08-10T03:30:00+01:00",
            "interval_end": "2020-08-10T04:00:00+01:00"
        },
        {
            "consumption": 0.071,
            "interval_start": "2020-08-10T03:00:00+01:00",
            "interval_end": "2020-08-10T03:30:00+01:00"
        },
        {
            "consumption": 0.065,
            "interval_start": "2020-08-10T02:30:00+01:00",
            "interval_end": "2020-08-10T03:00:00+01:00"
        },
        {
            "consumption": 0.034,
            "interval_start": "2020-08-10T02:00:00+01:00",
            "interval_end": "2020-08-10T02:30:00+01:00"
        },
        {
            "consumption": 0.038,
            "interval_start": "2020-08-10T01:30:00+01:00",
            "interval_end": "2020-08-10T02:00:00+01:00"
        },
        {
            "consumption": 0.07,
            "interval_start": "2020-08-10T01:00:00+01:00",
            "interval_end": "2020-08-10T01:30:00+01:00"
        },
        {
            "consumption": 0.072,
            "interval_start": "2020-08-10T00:30:00+01:00",
            "interval_end": "2020-08-10T01:00:00+01:00"
        },
        {
            "consumption": 0.066,
            "interval_start": "2020-08-09T00:00:00+01:00",
            "interval_end": "2020-08-09T00:30:00+01:00"
        },
        {
            "consumption": 0.068,
            "interval_start": "2020-08-08T23:30:00+01:00",
            "interval_end": "2020-08-09T00:00:00+01:00"
        },
        {
            "consumption": 0.07,
            "interval_start": "2020-08-08T23:00:00+01:00",
            "interval_end": "2020-08-08T23:30:00+01:00"
        },
        {
            "consumption": 0.106,
            "interval_start": "2020-08-08T22:30:00+01:00",
            "interval_end": "2020-08-08T23:00:00+01:00"
        }
    ]
}